Calculate the number of business days in periodic intervals — periodic_bizdays • mcrutils
…
business_days
the number of business days in the period,
according to the calendar

    Examples

periodic_bizdays(
  from = as.Date("2023-01-01"),
  to = as.Date("2023-12-31"),
  by = "month",
  quantlib_calendars = c("UnitedStates", "UnitedKingdom")
)
#> # A tibble: 24 × 4
#>    calendar     start      end        business_days
#>    <chr>        <date>     <date>             <int>
#>  1 UnitedStates 2023-01-01 2023-01-31            19
#>  2 UnitedStates 2023-02-01 2023-02-28            18
#>  3 UnitedStates 2023-03-01 2023-03-31            22
#>  4 UnitedStates 2023-04-01 2023-04-30            20
#>  5 UnitedStates 2023-05-01 2023-05-31            21
#>  6 UnitedStates 2023-06-01 2023-06-30            20
#>  7 UnitedStates 2023-07-01 2023-07-31            19
#>  8 UnitedStates 2023-08-01 2023-08-31            22
#>  9 UnitedStates 2023-09-01 2023-09-30            20
#> 10 UnitedStates 2023-10-01 2023-10-31            20
#> # ℹ 14 more rows
…
